{
  "project_info": {
    "project_number": "1007485604288",
    "firebase_url": "https://mibody-5d0ce.firebaseio.com",
    "project_id": "mibody-5d0ce",
    "storage_bucket": "mibody-5d0ce.appspot.com"
  },
  "client": [
    {
      "client_info": {
        "mobilesdk_app_id": "1:1007485604288:android:c53d8d14fd79a705",
        "android_client_info": {
          "package_name": "com.mibody.app"
        }
      },
      "oauth_client": [
        {
          "client_id": "1007485604288-mgjik1mv9i9ni8ngfaj5spakvpc8lmk6.apps.googleusercontent.com",
          "client_type": 1,
          "android_info": {
            "package_name": "com.mibody.app",
            "certificate_hash": "E7F2D00288A91CFCFF3BE2DDD31E2C248F355555"
          }
        },
        {
          "client_id": "1007485604288-c4hr70iddj4gdmcrcen2ff94n59k2l56.apps.googleusercontent.com",
          "client_type": 3
        }
      ],
      "api_key": [
        {
          "current_key": "AIzaSyD0U5FJDCjyApf7hybDbCru1cMMUP8vpWs"
        }
      ],
      "services": {
        "analytics_service": {
          "status": 1
        },
        "appinvite_service": {
          "status": 2,
          "other_platform_oauth_client": [
            {
              "client_id": "1007485604288-c4hr70iddj4gdmcrcen2ff94n59k2l56.apps.googleusercontent.com",
              "client_type": 3
            }
          ]
        },
        "ads_service": {
          "status": 2
        }
      }
    }
  ],
  "configuration_version": "1"
}